demo_improved_9/17
…
parameter : list res return : a 2960 x 5 dataframe diam_mid_pie,chl_small,pe_pie : This three columns contains the cluster means that associated with each of the three dimensions diam_mid,chl_small and pe. Time: time associated with this row Cluster: The cluster it belongs to. Int vairable ranging from 1 to 10

dfs = lapply(1:numclust, function(iclust){
  one_table = tibble(diam_mid_pie = mn[,1,iclust],
                     chl_small_pie = mn[,1,iclust],
                     pe_pie = mn[,1,iclust],
                     Time = Time, Cluster = rep(iclust, TT))
  colnames(one_table)[1:3] <- c("diam_mid_pie","chl_small_pie","pe_pie")
  one_table
})
mn_table = bind_rows(dfs)
mn_table

## # A tibble: 2,960 x 5
##    diam_mid_pie chl_small_pie pe_pie Time                Cluster
##           <dbl>         <dbl>  <dbl> <chr>                 <int>
##  1         5.96          5.96   5.96 2017-05-31T20:00:00       1
##  2         5.96          5.96   5.96 2017-05-31T21:00:00       1
##  3         5.96          5.96   5.96 2017-05-31T22:00:00       1
##  4         5.96          5.96   5.96 2017-05-31T23:00:00       1
##  5         5.96          5.96   5.96 2017-06-01T00:00:00       1
##  6         5.96          5.96   5.96 2017-06-01T01:00:00       1
##  7         5.97          5.97   5.97 2017-06-01T02:00:00       1
##  8         5.97          5.97   5.97 2017-06-01T03:00:00       1
##  9         5.97          5.97   5.97 2017-06-01T04:00:00       1
## 10         5.98          5.98   5.98 2017-06-01T05:00:00       1
## # ... with 2,950 more rows
…
